%YAML 1.1
%TAG !u! tag:unity3d.com,2011:
--- !u!114 &11400000
MonoBehaviour:
  m_ObjectHideFlags: 0
  m_CorrespondingSourceObject: {fileID: 0}
  m_PrefabInstance: {fileID: 0}
  m_PrefabAsset: {fileID: 0}
  m_GameObject: {fileID: 0}
  m_Enabled: 1
  m_EditorHideFlags: 0
  m_Script: {fileID: 11500000, guid: 1074fb39889b77d43993a137463251cf, type: 3}
  m_Name: BossWave1
  m_EditorClassIdentifier: 
  enemyPrefab: {fileID: 567253148815121862, guid: a97b201ee573c6540920d3557b845e1a,
    type: 3}
  pathPrefab: {fileID: 6510281019961471699, guid: 1a33399c07d31d84286b7740640c88c6,
    type: 3}
  timeBetweenSpawns: 0.5
  spawnRandomFactor: 0.3
  numberOfEnemies: 1
  moveSpeed: 10
